<?xml version="1.0" encoding="UTF-8" standalone="no"?>
<svg
        xmlns:inkscape="http://www.inkscape.org/namespaces/inkscape"
        xmlns:sodipodi="http://sodipodi.sourceforge.net/DTD/sodipodi-0.dtd"
        xmlns:svg="http://www.w3.org/2000/svg"
        viewBox="0 0 64 64"
        version="1.1"
        id="svg22"
        sodipodi:docname="sunset.svg"
        inkscape:version="1.2.2 (b0a8486541, 2022-12-01)"
        xmlns="http://www.w3.org/2000/svg">
    <sodipodi:namedview
            id="namedview24"
            pagecolor="#505050"
            bordercolor="#eeeeee"
            borderopacity="1"
            inkscape:showpageshadow="0"
            inkscape:pageopacity="0"
            inkscape:pagecheckerboard="0"
            inkscape:deskcolor="#505050"
            showgrid="false"
            inkscape:zoom="16.046875"
            inkscape:cx="32"
            inkscape:cy="32"
            inkscape:window-width="2560"
            inkscape:window-height="1363"
            inkscape:window-x="0"
            inkscape:window-y="40"
            inkscape:window-maximized="1"
            inkscape:current-layer="svg22"/>
    <defs
            id="defs12">
        <linearGradient
                id="b"
                x1="26.75"
                x2="37.25"
                y1="29.91"
                y2="48.09"
                gradientUnits="userSpaceOnUse">
            <stop
                    offset="0"
                    stop-color="#fbbf24"
                    id="stop2"/>
            <stop
                    offset=".45"
                    stop-color="#fbbf24"
                    id="stop4"/>
            <stop
                    offset="1"
                    stop-color="#f59e0b"
                    id="stop6"/>
        </linearGradient>
        <clipPath
                id="a">
            <path
                    fill="none"
                    d="M0 7.5h64v32H0z"
                    id="path9"/>
        </clipPath>
    </defs>
    <g
            stroke-miterlimit="10"
            clip-path="url(#a)"
            id="g18">
        <circle
                cx="32"
                cy="39"
                r="10.5"
                fill="url(#b)"
                stroke="#f8af18"
                stroke-width=".5"
                id="circle14"/>
        <path
                fill="none"
                stroke="#fbbf24"
                stroke-linecap="round"
                stroke-width="3"
                d="M32 22.71V16.5m0 45v-6.21m11.52-27.81l4.39-4.39M16.09 54.91l4.39-4.39m0-23l-4.39-4.39m31.82 31.78l-4.39-4.39M15.71 39H9.5m45 0h-6.21"
                id="path16">
            <animateTransform
                    attributeName="transform"
                    dur="45s"
                    repeatCount="indefinite"
                    type="rotate"
                    values="0 32 39; 360 32 39"/>
        </path>
    </g>
    <path
            fill="none"
            stroke="#374151"
            stroke-linecap="round"
            stroke-linejoin="round"
            stroke-width="2"
            d="M16 42.5h11l5 4.5 5-4.5h11"
            id="path20"
            style="stroke:#fafafa;stroke-opacity:1"/>
</svg>
