<?xml version="1.0" encoding="UTF-8"?>
<svg xmlns:cc="http://creativecommons.org/ns#" xmlns:dc="http://purl.org/dc/elements/1.1/" xmlns:rdf="http://www.w3.org/1999/02/22-rdf-syntax-ns#" role="img"
     version="1.1" viewBox="0 0 24 24"
     xmlns="http://www.w3.org/2000/svg">
    <title>RetroArch icon</title>
    <path d="M6.84 5.76L8.4 7.68H5.28l-.72 2.88H2.64l.72-2.88H1.44L0 13.44h3.84l-.48 1.92h3.36L4.2 18.24h2.82l2.34-2.88h5.28l2.34 2.88h2.82l-2.52-2.88h3.36l-.48-1.92H24l-1.44-5.76h-1.92l.72 2.88h-1.92l-.72-2.88H15.6l1.56-1.92h-2.04l-1.68 1.92h-2.88L8.88 5.76zm.24 3.84H9v1.92H7.08zm7.925 0h1.92v1.92h-1.92Z"
          fill="#fff"/>
    <metadata>
        <rdf:RDF>
            <cc:Work rdf:about="">
                <dc:title>RetroArch icon</dc:title>
            </cc:Work>
        </rdf:RDF>
    </metadata>
</svg>
